module gitlab.com/EternalWanderer/dice-roller

go 1.17

require (
	github.com/fatih/color v1.13.0 // indirect
	github.com/mattn/go-colorable v0.1.13 // indirect
	github.com/mattn/go-isatty v0.0.16 // indirect
	golang.org/x/sys v0.0.0-20220818161305-2296e01440c6 // indirect
)
